{
  "version": "1",
  "type": "SingleStat",
  "data": {
    "type": "cube_analytics",
    "query": {
      "measures": [
        "Jitsu.count"
      ],
      "timeDimensions": [
        {
          "dimension": "Jitsu.utcTime",
          "dateRange": "Today"
        }
      ],
      "limit": 5000
    }
  }
}